Fundamentals of Machine Learning - SQL and Databases - Joins (R version)
…
<SQL>
SELECT `first_name`, `last_name`, `title`, `length`, `rating`
FROM `actor`
LEFT JOIN `film_actor`
  ON (`actor`.`actor_id` = `film_actor`.`actor_id`)
LEFT JOIN `film`
  ON (`film_actor`.`film_id` = `film`.`film_id`)

Finally, you can “pull down” the full table using collect.

actors_and_titles_local <- actors_and_titles |> collect()
actors_and_titles_local

# A tibble: 5,462 × 5
   first_name last_name title                 length rating
   <chr>      <chr>     <chr>                  <int> <chr> 
 1 PENELOPE   GUINESS   ACADEMY DINOSAUR          86 PG    
 2 PENELOPE   GUINESS   ANACONDA CONFESSIONS      92 R     
 3 PENELOPE   GUINESS   ANGELS LIFE               74 G     
 4 PENELOPE   GUINESS   BULWORTH COMMANDMENTS     61 G     
 5 PENELOPE   GUINESS   CHEAPER CLYDE             87 G     
 6 PENELOPE   GUINESS   COLOR PHILADELPHIA       149 G     
 7 PENELOPE   GUINESS   ELEPHANT TROJAN          126 PG-13 
 8 PENELOPE   GUINESS   GLEAMING JAWBREAKER       89 NC-17 
 9 PENELOPE   GUINESS   HUMAN GRAFFITI            68 NC-17 
10 PENELOPE   GUINESS   KING EVOLUTION           184 NC-17 
# ℹ 5,452 more rows
