Fundamentals of Machine Learning - Databases and SQL - Selection - R
…
con <- DBI::dbConnect(RMariaDB::MariaDB(),
    host = awsresource, # get this from the instructor
    user = username, # get this from the instructor
    password = password, # get this from the instructor
    dbname = "sakila"
)

If you want to submit an SQL query directly, you use the DBI::dbGetQuery command. So to list the tables in the sakila database, you send a “show tables” command (the result is a base R dataframe, so we make it a tibble):

query <- "show tables"
result <- DBI::dbGetQuery(con, query)
print(as_tibble(result))

# A tibble: 23 × 1
   Tables_in_sakila
   <chr>           
 1 actor           
 2 actor_info      
 3 address         
 4 category        
 5 city            
 6 country         
 7 customer        
 8 customer_list   
 9 film            
10 film_actor      
# ℹ 13 more rows
…
