r_penguins
…
filter the data to keep only rows where “Flipper Length (mm)” is greater than “Body Mass (g)” divided by 20

penguins |> filter(`Flipper Length (mm)` > `Body Mass (g)` / 20)

# A tibble: 147 × 17
   studyName `Sample Number` Species         Region Island Stage `Individual ID`
   <chr>               <dbl> <chr>           <chr>  <chr>  <chr> <chr>          
 1 PAL0708                 3 Adelie Penguin… Anvers Torge… Adul… N2A1           
 2 PAL0708                 5 Adelie Penguin… Anvers Torge… Adul… N3A1           
 3 PAL0708                 6 Adelie Penguin… Anvers Torge… Adul… N3A2           
 4 PAL0708                 9 Adelie Penguin… Anvers Torge… Adul… N5A1           
 5 PAL0708                11 Adelie Penguin… Anvers Torge… Adul… N6A1           
 6 PAL0708                13 Adelie Penguin… Anvers Torge… Adul… N7A1           
 7 PAL0708                14 Adelie Penguin… Anvers Torge… Adul… N7A2           
 8 PAL0708                17 Adelie Penguin… Anvers Torge… Adul… N9A1           
 9 PAL0708                19 Adelie Penguin… Anvers Torge… Adul… N10A1          
10 PAL0708                21 Adelie Penguin… Anvers Biscoe Adul… N11A1          
# ℹ 137 more rows
# ℹ 10 more variables: `Clutch Completion` <chr>, `Date Egg` <date>,
#   `Culmen Length (mm)` <dbl>, `Culmen Depth (mm)` <dbl>,
#   `Flipper Length (mm)` <dbl>, `Body Mass (g)` <dbl>, Sex <chr>,
#   `Delta 15 N (o/oo)` <dbl>, `Delta 13 C (o/oo)` <dbl>, Comments <chr>
…
create a new column “SimpleSpecies” by extracting the first word from the “Species” column

penguins <- penguins |> mutate(SimpleSpecies = word(Species, 1))

create a new column “Body Mass (kg)” by dividing the “Body Mass (g)” column by 1000

penguins <- penguins |> mutate(`Body Mass (kg)` = `Body Mass (g)` / 1000)

sort the data by “Body Mass (g)” in ascending order

penguins_small <- penguins |> select(Species, Island, `Body Mass (g)`)
penguins_small |> arrange(`Body Mass (g)`)

# A tibble: 344 × 3
   Species                                   Island    `Body Mass (g)`
   <chr>                                     <chr>               <dbl>
 1 Chinstrap penguin (Pygoscelis antarctica) Dream                2700
 2 Adelie Penguin (Pygoscelis adeliae)       Biscoe               2850
 3 Adelie Penguin (Pygoscelis adeliae)       Biscoe               2850
 4 Adelie Penguin (Pygoscelis adeliae)       Biscoe               2900
 5 Adelie Penguin (Pygoscelis adeliae)       Dream                2900
 6 Adelie Penguin (Pygoscelis adeliae)       Torgersen            2900
 7 Chinstrap penguin (Pygoscelis antarctica) Dream                2900
 8 Adelie Penguin (Pygoscelis adeliae)       Biscoe               2925
 9 Adelie Penguin (Pygoscelis adeliae)       Dream                2975
10 Adelie Penguin (Pygoscelis adeliae)       Dream                3000
# ℹ 334 more rows
…
