Fundamentals of Machine Learning - Working with data in R
…
filter the data to keep only rows where “Flipper Length (mm)” is greater than “Body Mass (g)” divided by 20

penguins |> filter(`Flipper Length (mm)` > `Body Mass (g)` / 20)

# A tibble: 147 × 17
   studyName `Sample Number` Species         Region Island Stage `Individual ID`
   <chr>               <dbl> <chr>           <chr>  <chr>  <chr> <chr>          
 1 PAL0708                 3 Adelie Penguin… Anvers Torge… Adul… N2A1           
 2 PAL0708                 5 Adelie Penguin… Anvers Torge… Adul… N3A1           
 3 PAL0708                 6 Adelie Penguin… Anvers Torge… Adul… N3A2           
 4 PAL0708                 9 Adelie Penguin… Anvers Torge… Adul… N5A1           
 5 PAL0708                11 Adelie Penguin… Anvers Torge… Adul… N6A1           
 6 PAL0708                13 Adelie Penguin… Anvers Torge… Adul… N7A1           
 7 PAL0708                14 Adelie Penguin… Anvers Torge… Adul… N7A2           
 8 PAL0708                17 Adelie Penguin… Anvers Torge… Adul… N9A1           
 9 PAL0708                19 Adelie Penguin… Anvers Torge… Adul… N10A1          
10 PAL0708                21 Adelie Penguin… Anvers Biscoe Adul… N11A1          
# ℹ 137 more rows
# ℹ 10 more variables: `Clutch Completion` <chr>, `Date Egg` <date>,
#   `Culmen Length (mm)` <dbl>, `Culmen Depth (mm)` <dbl>,
#   `Flipper Length (mm)` <dbl>, `Body Mass (g)` <dbl>, Sex <chr>,
#   `Delta 15 N (o/oo)` <dbl>, `Delta 13 C (o/oo)` <dbl>, Comments <chr>
…
create a new column “SimpleSpecies” by extracting the first word from the “Species” column

penguins <- penguins |> mutate(SimpleSpecies = word(Species, 1))

create a new column “Body Mass (kg)” by dividing the “Body Mass (g)” column by 1000

penguins <- penguins |> mutate(`Body Mass (kg)` = `Body Mass (g)` / 1000)

sort the data by “Body Mass (g)” in ascending order

penguins_small <- penguins |> select(Species, Island, `Body Mass (g)`)
penguins_small |> arrange(`Body Mass (g)`)

# A tibble: 344 × 3
   Species                                   Island    `Body Mass (g)`
   <chr>                                     <chr>               <dbl>
 1 Chinstrap penguin (Pygoscelis antarctica) Dream                2700
 2 Adelie Penguin (Pygoscelis adeliae)       Biscoe               2850
 3 Adelie Penguin (Pygoscelis adeliae)       Biscoe               2850
 4 Adelie Penguin (Pygoscelis adeliae)       Biscoe               2900
 5 Adelie Penguin (Pygoscelis adeliae)       Dream                2900
 6 Adelie Penguin (Pygoscelis adeliae)       Torgersen            2900
 7 Chinstrap penguin (Pygoscelis antarctica) Dream                2900
 8 Adelie Penguin (Pygoscelis adeliae)       Biscoe               2925
 9 Adelie Penguin (Pygoscelis adeliae)       Dream                2975
10 Adelie Penguin (Pygoscelis adeliae)       Dream                3000
# ℹ 334 more rows
…
As an example, we use an excel spreadsheet violent crime data from the FBI.

read the 2019 crime data, and remove D.C.

ViolentCrime2019 <-
    read_excel("data/Violent Crime-by state-2019-table-5.xls",
        sheet = 1, range = "A4:M514", trim_ws = TRUE
    )

New names:
• `` -> `...3`

ViolentCrime2019

# A tibble: 510 × 13
   State  Area  ...3  Population `Violent \ncrime1` Murder and \nnonnegl…¹ Rape2
   <chr>  <chr> <chr> <chr>                   <dbl>                  <dbl> <dbl>
 1 ALABA… Metr… <NA>  3728978                    NA                     NA    NA
 2 <NA>   <NA>  Area… 0.7660000…              12880                    182  1141
 3 <NA>   <NA>  Esti… 1                       19951                    300  1542
 4 <NA>   Citi… <NA>  528518                     NA                     NA    NA
 5 <NA>   <NA>  Area… 0.8930000…               3327                     36   297
 6 <NA>   <NA>  Esti… 1                        3541                     37   310
 7 <NA>   Nonm… <NA>  645689                     NA                     NA    NA
 8 <NA>   <NA>  Area… 0.7239999…                874                     13   148
 9 <NA>   <NA>  Esti… 1                        1554                     21   216
10 <NA>   Stat… <NA>  4903185                 25046                    358  2068
# ℹ 500 more rows
# ℹ abbreviated name: ¹​`Murder and \nnonnegligent \nmanslaughter`
# ℹ 6 more variables: Robbery <dbl>, `Aggravated \nassault` <dbl>,
#   `Property \ncrime` <dbl>, Burglary <dbl>, `Larceny-theft` <dbl>,
#   `Motor \nvehicle \ntheft` <dbl>

Notice that the third column got a “made-up” name (‘..3’) and the other column names are a bit weird, they have newlines in them and also in some case footnotes. Let’s clean this up. First we replace all of the newlines and spaces by underlines in the column names.

colnames(ViolentCrime2019) = gsub("[ \n]+", "_", colnames(ViolentCrime2019))
ViolentCrime2019

# A tibble: 510 × 13
   State   Area     ...3  Population Violent_crime1 Murder_and_nonneglig…¹ Rape2
   <chr>   <chr>    <chr> <chr>               <dbl>                  <dbl> <dbl>
 1 ALABAMA Metropo… <NA>  3728978                NA                     NA    NA
 2 <NA>    <NA>     Area… 0.7660000…          12880                    182  1141
 3 <NA>    <NA>     Esti… 1                   19951                    300  1542
 4 <NA>    Cities … <NA>  528518                 NA                     NA    NA
 5 <NA>    <NA>     Area… 0.8930000…           3327                     36   297
 6 <NA>    <NA>     Esti… 1                    3541                     37   310
 7 <NA>    Nonmetr… <NA>  645689                 NA                     NA    NA
 8 <NA>    <NA>     Area… 0.7239999…            874                     13   148
 9 <NA>    <NA>     Esti… 1                    1554                     21   216
10 <NA>    State T… <NA>  4903185             25046                    358  2068
# ℹ 500 more rows
# ℹ abbreviated name: ¹​Murder_and_nonnegligent_manslaughter
# ℹ 6 more variables: Robbery <dbl>, Aggravated_assault <dbl>,
#   Property_crime <dbl>, Burglary <dbl>, `Larceny-theft` <dbl>,
#   Motor_vehicle_theft <dbl>
…
Finally, suppose we’re only interested in the state totals. That means which need to extract the rows where the “Area” column is “State Total”.

 VCrimeRate2019 <- ViolentCrime2019 |>
     filter(`Area` == "State Total") |>
     select(`Violent_crime1`)
 VCrimeRate2019

# A tibble: 50 × 1
   Violent_crime1
            <dbl>
 1          25046
 2           6343
 3          33141
 4          17643
 5         174331
 6          21938
 7           6546
 8           4115
 9          81270
10          36170
# ℹ 40 more rows
