Fundamentals of Machine Learning
…
Rows: 344 Columns: 17
── Column specification ────────────────────────────────────────────────────────
Delimiter: ","
chr  (9): studyName, Species, Region, Island, Stage, Individual ID, Clutch C...
dbl  (7): Sample Number, Culmen Length (mm), Culmen Depth (mm), Flipper Leng...
date (1): Date Egg

ℹ Use `spec()` to retrieve the full column specification for this data.
ℹ Specify the column types or set `show_col_types = FALSE` to quiet this message.

mass <- data |> select("Body Mass (g)")
print(mass)

# A tibble: 344 × 1
   `Body Mass (g)`
             <dbl>
 1            3750
 2            3800
 3            3250
 4              NA
 5            3450
 6            3650
 7            3625
 8            4675
 9            3475
10            4250
# ℹ 334 more rows
…
