The Normal Distribution
…
The two key parameters are the mean and the standard deviation, which govern the position of the peak and the “spread” of the curve respectively.

normal |> mutate(y2 = dnorm(`x`, 0, .5))

# A tibble: 601 × 3
       x       y           y2
   <dbl>   <dbl>        <dbl>
 1 -3    0.00443 0.0000000122
 2 -2.99 0.00457 0.0000000137
 3 -2.98 0.00470 0.0000000154
 4 -2.97 0.00485 0.0000000174
 5 -2.96 0.00499 0.0000000196
 6 -2.95 0.00514 0.0000000220
 7 -2.94 0.00530 0.0000000248
 8 -2.93 0.00545 0.0000000279
 9 -2.92 0.00562 0.0000000313
10 -2.91 0.00578 0.0000000352
# ℹ 591 more rows
…
